{
    "male": [
        "Adolf", 
		"Kurt", 
		"Chris", 
		"John", 
		"Axel", 
		"Alex", 
		"Hans", 
		"Wilhelm", 
		"Tobias", 
		"William", 
		"Danny", 
		"Mike", 
		"Erik", 
		"Kaj",
		"Muhammed", 
		"Julius", 
		"Thor", 
		"Harald", 
		"Emil", 
		"Frans", 
		"Abdullah", 
		"Georg", 
		"Thomas", 
		"Sam",
		"Mathias", 
		"Anders", 
		"Morten", 
		"Allan", 
		"Kenneth", 
		"Martin", 
		"Jim", 
		"Torsten", 
		"Torben", 
		"Teddy", 
		"Jesper", 
		"Peter", 
		"Poul", 
		"Ivan", 
		"Igor", 
		"Aske", 
		"Børge", 
		"Niels", 
		"Rolf", 
		"Søren", 
		"Sigurd", 
		"Sebastian", 
		"Kim", 
		"Christian", 
		"Kåre", 
		"Jan", 
		"Finn", 
		"Jens", 
		"Jan", 
		"Jonas", 
		"Lars", 
		"Simon", 
		"Tommy", 
		"Bo", 
		"Andreas", 
		"Frederik", 
		"Ingolf", 
		"Rasmus", 
		"Ingvar", 
		"Mark",
		"Tom", 
		"Tim"
    ],
    "female": [
        "Mette", 
        "Kirstine", 
        "Sine", 
        "Agnes", 
        "Agnete", 
        "Alice", 
        "Yrsa", 
        "Mie", 
        "Frida", 
        "Freja", 
        "Emily", 
        "Anette", 
        "Sanne", 
        "Anja", 
        "Rita", 
        "Margrethe", 
        "Majken", 
        "Line", 
        "Lisa", 
        "Susanne", 
        "Christina", 
        "Gitte", 
        "Ann", 
        "Anne", 
        "Annemette", 
        "Anna", 
        "Dorthe", 
        "Malene", 
        "Britta", 
        "Ellen", 
        "Vera", 
        "Ulla", 
        "Grethe", 
        "Sissel", 
        "Petra", 
        "Inge", 
        "Ingelise", 
        "Lene", 
        "Kirsten", 
        "Lotte", 
        "Sarah", 
        "Trine", 
        "Tine", 
        "Frederikke", 
        "Karin", 
        "Katrine", 
        "Nina", 
        "Inger", 
        "Irene", 
        "Lena"
	],
	"lastname":[
		"Jensen", 
		"Christensen", 
		"Kristensen", 
		"Toft", 
		"Nøddesbo",
		"Mathissen",
		"Faber", 
		"Sten", 
		"Steen", 
		"Thomsen", 
		"Hansen", 
		"Gyldenløv", 
		"Schmith", 
		"Meyer", 
		"Meier", 
		"Søndersø", 
		"Rosenfelt", 
		"Gyldenholm", 
		"Jørgensen", 
		"Foged", 
		"Amundsen", 
		"Andersen", 
		"Vessel", 
		"Faber", 
		"Øholm", 
		"Jelling", 
		"Grøn", 
		"Bering", 
		"Skov", 
		"Vedbæk", 
		"Hesselager", 
		"Larsen", 
		"Østergaard", 
		"Frost", 
		"Abildgaard", 
		"Rasmussen", 
		"Møller", 
		"Bruun", 
		"Mørk", 
		"Hvid", 
		"Laursen", 
		"Poulsen", 
		"Petersen", 
		"Pedersen", 
		"Pil", 
		"Munk", 
		"Nielsen", 
		"Jespersen", 
		"Thomassen", 
		"Søndergaard", 
		"Nørgaard", 
		"Vestergaard", 
		"Knudsen", 
		"Madsen", 
		"Ildskov", 
		"Kofoed", 
		"Enggaard", 
		"Majgaard", 
		"Søgaard", 
		"Hvidbæk", 
		"Sundbæk", 
		"Ranbæk", 
		"Lillebæk", 
		"Korsbæk", 
		"Bang", 
		"Torsgaard", 
		"Vindbæk", 
		"Lyng", 
		"Ingerslev", 
		"Nørslev", 
		"Mikkelsen", 
		"Landahl", 
		"Vidal", 
		"Søvnedal", 
		"Fredgaard", 
		"Frederiksen", 
		"Laurbæk", 
		"Pilebæk", 
		"Piil", 
		"Ulfgaard", 
		"Dahl", 
		"Sandberg", 
		"Sand", 
		"Lysgaard"
	]
}